<svg width="355" height="54" viewBox="0 0 355 54" fill="none" xmlns="http://www.w3.org/2000/svg">
<path d="M327.5 0H27.5C12.5883 0 0.5 12.0883 0.5 27C0.5 41.9117 12.5883 54 27.5 54H327.5C342.412 54 354.5 41.9117 354.5 27C354.5 12.0883 342.412 0 327.5 0Z" fill="#1B1D3D"/>
</svg>
