<svg width="181" height="180" viewBox="0 0 181 180" fill="none" xmlns="http://www.w3.org/2000/svg">
<path d="M89.8663 0.00222778C104.395 -0.100067 118.733 3.31656 131.654 9.96016C144.575 16.6038 155.695 26.2768 164.065 38.1528C172.435 50.0287 177.806 63.7545 179.717 78.1572C181.629 92.5599 180.026 107.211 175.044 120.86C170.062 134.508 161.85 146.747 151.11 156.532C140.369 166.316 127.42 173.355 113.367 177.046C99.3151 180.738 84.578 180.973 70.4154 177.73C56.2528 174.488 43.0856 167.865 32.0391 158.427L40.2236 148.848C49.7236 156.964 61.0474 162.66 73.2272 165.448C85.4071 168.236 98.081 168.035 110.166 164.86C122.251 161.685 133.388 155.632 142.624 147.217C151.861 138.803 158.923 128.277 163.208 116.539C167.492 104.802 168.871 92.2015 167.227 79.8152C165.583 67.4288 160.964 55.6247 153.766 45.4114C146.568 35.1981 137.004 26.8792 125.892 21.1657C114.78 15.4522 102.45 12.5139 89.955 12.6019L89.8663 0.00222778Z" fill="#090CBD"/>
<path d="M31.2154 157.715C17.5616 145.761 7.84044 129.959 3.32746 112.382C-1.18553 94.8048 -0.279495 76.2739 5.92668 59.2209C12.1328 42.1679 23.3492 27.3893 38.104 16.8244C52.8589 6.25952 70.4628 0.401825 88.606 0.019928L88.8712 12.6171C73.268 12.9456 58.1286 17.9832 45.4395 27.069C32.7503 36.1548 23.1042 48.8644 17.7669 63.53C12.4296 78.1956 11.6504 94.1321 15.5316 109.248C19.4128 124.365 27.773 137.955 39.5153 148.235L31.2154 157.715Z" fill="#437CF8"/>
<path d="M29.1332 62.764V65.212H32.0132V66.328H29.1332V68.884H32.3732V70H27.7652V61.648H32.3732V62.764H29.1332ZM36.4582 70.108C35.9382 70.108 35.4702 70.016 35.0542 69.832C34.6462 69.64 34.3222 69.384 34.0822 69.064C33.8422 68.736 33.7142 68.372 33.6982 67.972H35.1142C35.1382 68.252 35.2702 68.488 35.5102 68.68C35.7582 68.864 36.0662 68.956 36.4342 68.956C36.8182 68.956 37.1142 68.884 37.3222 68.74C37.5382 68.588 37.6462 68.396 37.6462 68.164C37.6462 67.916 37.5262 67.732 37.2862 67.612C37.0542 67.492 36.6822 67.36 36.1702 67.216C35.6742 67.08 35.2702 66.948 34.9582 66.82C34.6462 66.692 34.3742 66.496 34.1422 66.232C33.9182 65.968 33.8062 65.62 33.8062 65.188C33.8062 64.836 33.9102 64.516 34.1182 64.228C34.3262 63.932 34.6222 63.7 35.0062 63.532C35.3982 63.364 35.8462 63.28 36.3502 63.28C37.1022 63.28 37.7062 63.472 38.1622 63.856C38.6262 64.232 38.8742 64.748 38.9062 65.404H37.5382C37.5142 65.108 37.3942 64.872 37.1782 64.696C36.9622 64.52 36.6702 64.432 36.3022 64.432C35.9422 64.432 35.6662 64.5 35.4742 64.636C35.2822 64.772 35.1862 64.952 35.1862 65.176C35.1862 65.352 35.2502 65.5 35.3782 65.62C35.5062 65.74 35.6622 65.836 35.8462 65.908C36.0302 65.972 36.3022 66.056 36.6622 66.16C37.1422 66.288 37.5342 66.42 37.8382 66.556C38.1502 66.684 38.4182 66.876 38.6422 67.132C38.8662 67.388 38.9822 67.728 38.9902 68.152C38.9902 68.528 38.8862 68.864 38.6782 69.16C38.4702 69.456 38.1742 69.688 37.7902 69.856C37.4142 70.024 36.9702 70.108 36.4582 70.108ZM42.0644 64.504V68.164C42.0644 68.412 42.1204 68.592 42.2324 68.704C42.3524 68.808 42.5524 68.86 42.8324 68.86H43.6724V70H42.5924C41.9764 70 41.5044 69.856 41.1764 69.568C40.8484 69.28 40.6844 68.812 40.6844 68.164V64.504H39.9044V63.388H40.6844V61.744H42.0644V63.388H43.6724V64.504H42.0644ZM45.6292 62.512C45.3812 62.512 45.1732 62.428 45.0052 62.26C44.8372 62.092 44.7532 61.884 44.7532 61.636C44.7532 61.388 44.8372 61.18 45.0052 61.012C45.1732 60.844 45.3812 60.76 45.6292 60.76C45.8692 60.76 46.0732 60.844 46.2412 61.012C46.4092 61.18 46.4932 61.388 46.4932 61.636C46.4932 61.884 46.4092 62.092 46.2412 62.26C46.0732 62.428 45.8692 62.512 45.6292 62.512ZM46.3012 63.388V70H44.9332V63.388H46.3012ZM56.1013 63.28C56.6213 63.28 57.0853 63.388 57.4933 63.604C57.9093 63.82 58.2333 64.14 58.4653 64.564C58.7053 64.988 58.8253 65.5 58.8253 66.1V70H57.4693V66.304C57.4693 65.712 57.3213 65.26 57.0253 64.948C56.7293 64.628 56.3253 64.468 55.8133 64.468C55.3013 64.468 54.8933 64.628 54.5893 64.948C54.2933 65.26 54.1453 65.712 54.1453 66.304V70H52.7893V66.304C52.7893 65.712 52.6413 65.26 52.3453 64.948C52.0493 64.628 51.6453 64.468 51.1333 64.468C50.6213 64.468 50.2133 64.628 49.9093 64.948C49.6133 65.26 49.4653 65.712 49.4653 66.304V70H48.0973V63.388H49.4653V64.144C49.6893 63.872 49.9733 63.66 50.3173 63.508C50.6613 63.356 51.0293 63.28 51.4213 63.28C51.9493 63.28 52.4213 63.392 52.8373 63.616C53.2533 63.84 53.5733 64.164 53.7973 64.588C53.9973 64.188 54.3093 63.872 54.7333 63.64C55.1573 63.4 55.6133 63.28 56.1013 63.28ZM60.11 66.664C60.11 66 60.246 65.412 60.518 64.9C60.798 64.388 61.174 63.992 61.646 63.712C62.126 63.424 62.654 63.28 63.23 63.28C63.75 63.28 64.202 63.384 64.586 63.592C64.978 63.792 65.29 64.044 65.522 64.348V63.388H66.902V70H65.522V69.016C65.29 69.328 64.974 69.588 64.574 69.796C64.174 70.004 63.718 70.108 63.206 70.108C62.638 70.108 62.118 69.964 61.646 69.676C61.174 69.38 60.798 68.972 60.518 68.452C60.246 67.924 60.11 67.328 60.11 66.664ZM65.522 66.688C65.522 66.232 65.426 65.836 65.234 65.5C65.05 65.164 64.806 64.908 64.502 64.732C64.198 64.556 63.87 64.468 63.518 64.468C63.166 64.468 62.838 64.556 62.534 64.732C62.23 64.9 61.982 65.152 61.79 65.488C61.606 65.816 61.514 66.208 61.514 66.664C61.514 67.12 61.606 67.52 61.79 67.864C61.982 68.208 62.23 68.472 62.534 68.656C62.846 68.832 63.174 68.92 63.518 68.92C63.87 68.92 64.198 68.832 64.502 68.656C64.806 68.48 65.05 68.224 65.234 67.888C65.426 67.544 65.522 67.144 65.522 66.688ZM70.2948 64.504V68.164C70.2948 68.412 70.3508 68.592 70.4628 68.704C70.5828 68.808 70.7828 68.86 71.0628 68.86H71.9028V70H70.8228C70.2068 70 69.7348 69.856 69.4068 69.568C69.0788 69.28 68.9148 68.812 68.9148 68.164V64.504H68.1348V63.388H68.9148V61.744H70.2948V63.388H71.9028V64.504H70.2948ZM79.2237 66.532C79.2237 66.78 79.2077 67.004 79.1757 67.204H74.1237C74.1637 67.732 74.3597 68.156 74.7117 68.476C75.0637 68.796 75.4957 68.956 76.0077 68.956C76.7437 68.956 77.2637 68.648 77.5677 68.032H79.0437C78.8437 68.64 78.4797 69.14 77.9517 69.532C77.4317 69.916 76.7837 70.108 76.0077 70.108C75.3757 70.108 74.8077 69.968 74.3037 69.688C73.8077 69.4 73.4157 69 73.1277 68.488C72.8477 67.968 72.7077 67.368 72.7077 66.688C72.7077 66.008 72.8437 65.412 73.1157 64.9C73.3957 64.38 73.7837 63.98 74.2797 63.7C74.7837 63.42 75.3597 63.28 76.0077 63.28C76.6317 63.28 77.1877 63.416 77.6757 63.688C78.1637 63.96 78.5437 64.344 78.8157 64.84C79.0877 65.328 79.2237 65.892 79.2237 66.532ZM77.7957 66.1C77.7877 65.596 77.6077 65.192 77.2557 64.888C76.9037 64.584 76.4677 64.432 75.9477 64.432C75.4757 64.432 75.0717 64.584 74.7357 64.888C74.3997 65.184 74.1997 65.588 74.1357 66.1H77.7957ZM80.1139 66.664C80.1139 66 80.2499 65.412 80.5219 64.9C80.8019 64.388 81.1779 63.992 81.6499 63.712C82.1299 63.424 82.6619 63.28 83.2459 63.28C83.6779 63.28 84.1019 63.376 84.5179 63.568C84.9419 63.752 85.2779 64 85.5259 64.312V61.12H86.9059V70H85.5259V69.004C85.3019 69.324 84.9899 69.588 84.5899 69.796C84.1979 70.004 83.7459 70.108 83.2339 70.108C82.6579 70.108 82.1299 69.964 81.6499 69.676C81.1779 69.38 80.8019 68.972 80.5219 68.452C80.2499 67.924 80.1139 67.328 80.1139 66.664ZM85.5259 66.688C85.5259 66.232 85.4299 65.836 85.2379 65.5C85.0539 65.164 84.8099 64.908 84.5059 64.732C84.2019 64.556 83.8739 64.468 83.5219 64.468C83.1699 64.468 82.8419 64.556 82.5379 64.732C82.2339 64.9 81.9859 65.152 81.7939 65.488C81.6099 65.816 81.5179 66.208 81.5179 66.664C81.5179 67.12 81.6099 67.52 81.7939 67.864C81.9859 68.208 82.2339 68.472 82.5379 68.656C82.8499 68.832 83.1779 68.92 83.5219 68.92C83.8739 68.92 84.2019 68.832 84.5059 68.656C84.8099 68.48 85.0539 68.224 85.2379 67.888C85.4299 67.544 85.5259 67.144 85.5259 66.688ZM98.4799 61.66V70H97.1119V66.352H93.1879V70H91.8199V61.66H93.1879V65.236H97.1119V61.66H98.4799ZM103.149 70.108C102.525 70.108 101.961 69.968 101.457 69.688C100.953 69.4 100.557 69 100.269 68.488C99.9809 67.968 99.8369 67.368 99.8369 66.688C99.8369 66.016 99.9849 65.42 100.281 64.9C100.577 64.38 100.981 63.98 101.493 63.7C102.005 63.42 102.577 63.28 103.209 63.28C103.841 63.28 104.413 63.42 104.925 63.7C105.437 63.98 105.841 64.38 106.137 64.9C106.433 65.42 106.581 66.016 106.581 66.688C106.581 67.36 106.429 67.956 106.125 68.476C105.821 68.996 105.405 69.4 104.877 69.688C104.357 69.968 103.781 70.108 103.149 70.108ZM103.149 68.92C103.501 68.92 103.829 68.836 104.133 68.668C104.445 68.5 104.697 68.248 104.889 67.912C105.081 67.576 105.177 67.168 105.177 66.688C105.177 66.208 105.085 65.804 104.901 65.476C104.717 65.14 104.473 64.888 104.169 64.72C103.865 64.552 103.537 64.468 103.185 64.468C102.833 64.468 102.505 64.552 102.201 64.72C101.905 64.888 101.669 65.14 101.493 65.476C101.317 65.804 101.229 66.208 101.229 66.688C101.229 67.4 101.409 67.952 101.769 68.344C102.137 68.728 102.597 68.92 103.149 68.92ZM113.921 63.388V70H112.553V69.22C112.337 69.492 112.053 69.708 111.701 69.868C111.357 70.02 110.989 70.096 110.597 70.096C110.077 70.096 109.609 69.988 109.193 69.772C108.785 69.556 108.461 69.236 108.221 68.812C107.989 68.388 107.873 67.876 107.873 67.276V63.388H109.229V67.072C109.229 67.664 109.377 68.12 109.673 68.44C109.969 68.752 110.373 68.908 110.885 68.908C111.397 68.908 111.801 68.752 112.097 68.44C112.401 68.12 112.553 67.664 112.553 67.072V63.388H113.921ZM118.126 70.108C117.606 70.108 117.138 70.016 116.722 69.832C116.314 69.64 115.99 69.384 115.75 69.064C115.51 68.736 115.382 68.372 115.366 67.972H116.782C116.806 68.252 116.938 68.488 117.178 68.68C117.426 68.864 117.734 68.956 118.102 68.956C118.486 68.956 118.782 68.884 118.99 68.74C119.206 68.588 119.314 68.396 119.314 68.164C119.314 67.916 119.194 67.732 118.954 67.612C118.722 67.492 118.35 67.36 117.838 67.216C117.342 67.08 116.938 66.948 116.626 66.82C116.314 66.692 116.042 66.496 115.81 66.232C115.586 65.968 115.474 65.62 115.474 65.188C115.474 64.836 115.578 64.516 115.786 64.228C115.994 63.932 116.29 63.7 116.674 63.532C117.066 63.364 117.514 63.28 118.018 63.28C118.77 63.28 119.374 63.472 119.83 63.856C120.294 64.232 120.542 64.748 120.574 65.404H119.206C119.182 65.108 119.062 64.872 118.846 64.696C118.63 64.52 118.338 64.432 117.97 64.432C117.61 64.432 117.334 64.5 117.142 64.636C116.95 64.772 116.854 64.952 116.854 65.176C116.854 65.352 116.918 65.5 117.046 65.62C117.174 65.74 117.33 65.836 117.514 65.908C117.698 65.972 117.97 66.056 118.33 66.16C118.81 66.288 119.202 66.42 119.506 66.556C119.818 66.684 120.086 66.876 120.31 67.132C120.534 67.388 120.65 67.728 120.658 68.152C120.658 68.528 120.554 68.864 120.346 69.16C120.138 69.456 119.842 69.688 119.458 69.856C119.082 70.024 118.638 70.108 118.126 70.108ZM128.196 66.532C128.196 66.78 128.18 67.004 128.148 67.204H123.096C123.136 67.732 123.332 68.156 123.684 68.476C124.036 68.796 124.468 68.956 124.98 68.956C125.716 68.956 126.236 68.648 126.54 68.032H128.016C127.816 68.64 127.452 69.14 126.924 69.532C126.404 69.916 125.756 70.108 124.98 70.108C124.348 70.108 123.78 69.968 123.276 69.688C122.78 69.4 122.388 69 122.1 68.488C121.82 67.968 121.68 67.368 121.68 66.688C121.68 66.008 121.816 65.412 122.088 64.9C122.368 64.38 122.756 63.98 123.252 63.7C123.756 63.42 124.332 63.28 124.98 63.28C125.604 63.28 126.16 63.416 126.648 63.688C127.136 63.96 127.516 64.344 127.788 64.84C128.06 65.328 128.196 65.892 128.196 66.532ZM126.768 66.1C126.76 65.596 126.58 65.192 126.228 64.888C125.876 64.584 125.44 64.432 124.92 64.432C124.448 64.432 124.044 64.584 123.708 64.888C123.372 65.184 123.172 65.588 123.108 66.1H126.768ZM132.963 63.28C133.467 63.28 133.915 63.388 134.307 63.604C134.707 63.82 135.019 64.14 135.243 64.564C135.475 64.988 135.591 65.5 135.591 66.1V70H134.235V66.304C134.235 65.712 134.087 65.26 133.791 64.948C133.495 64.628 133.091 64.468 132.579 64.468C132.067 64.468 131.659 64.628 131.355 64.948C131.059 65.26 130.911 65.712 130.911 66.304V70H129.543V61.12H130.911V64.156C131.143 63.876 131.435 63.66 131.787 63.508C132.147 63.356 132.539 63.28 132.963 63.28ZM140.204 70.108C139.58 70.108 139.016 69.968 138.512 69.688C138.008 69.4 137.612 69 137.324 68.488C137.036 67.968 136.892 67.368 136.892 66.688C136.892 66.016 137.04 65.42 137.336 64.9C137.632 64.38 138.036 63.98 138.548 63.7C139.06 63.42 139.632 63.28 140.264 63.28C140.896 63.28 141.468 63.42 141.98 63.7C142.492 63.98 142.896 64.38 143.192 64.9C143.488 65.42 143.636 66.016 143.636 66.688C143.636 67.36 143.484 67.956 143.18 68.476C142.876 68.996 142.46 69.4 141.932 69.688C141.412 69.968 140.836 70.108 140.204 70.108ZM140.204 68.92C140.556 68.92 140.884 68.836 141.188 68.668C141.5 68.5 141.752 68.248 141.944 67.912C142.136 67.576 142.232 67.168 142.232 66.688C142.232 66.208 142.14 65.804 141.956 65.476C141.772 65.14 141.528 64.888 141.224 64.72C140.92 64.552 140.592 64.468 140.24 64.468C139.888 64.468 139.56 64.552 139.256 64.72C138.96 64.888 138.724 65.14 138.548 65.476C138.372 65.804 138.284 66.208 138.284 66.688C138.284 67.4 138.464 67.952 138.824 68.344C139.192 68.728 139.652 68.92 140.204 68.92ZM146.356 61.12V70H144.988V61.12H146.356ZM147.696 66.664C147.696 66 147.832 65.412 148.104 64.9C148.384 64.388 148.76 63.992 149.232 63.712C149.712 63.424 150.244 63.28 150.828 63.28C151.26 63.28 151.684 63.376 152.1 63.568C152.524 63.752 152.86 64 153.108 64.312V61.12H154.488V70H153.108V69.004C152.884 69.324 152.572 69.588 152.172 69.796C151.78 70.004 151.328 70.108 150.816 70.108C150.24 70.108 149.712 69.964 149.232 69.676C148.76 69.38 148.384 68.972 148.104 68.452C147.832 67.924 147.696 67.328 147.696 66.664ZM153.108 66.688C153.108 66.232 153.012 65.836 152.82 65.5C152.636 65.164 152.392 64.908 152.088 64.732C151.784 64.556 151.456 64.468 151.104 64.468C150.752 64.468 150.424 64.556 150.12 64.732C149.816 64.9 149.568 65.152 149.376 65.488C149.192 65.816 149.1 66.208 149.1 66.664C149.1 67.12 149.192 67.52 149.376 67.864C149.568 68.208 149.816 68.472 150.12 68.656C150.432 68.832 150.76 68.92 151.104 68.92C151.456 68.92 151.784 68.832 152.088 68.656C152.392 68.48 152.636 68.224 152.82 67.888C153.012 67.544 153.108 67.144 153.108 66.688ZM51.1331 86.296H47.6411L47.0411 88H45.6131L48.6011 79.648H50.1851L53.1731 88H51.7331L51.1331 86.296ZM50.7491 85.18L49.3931 81.304L48.0251 85.18H50.7491ZM57.8083 81.28C58.3283 81.28 58.7923 81.388 59.2003 81.604C59.6163 81.82 59.9403 82.14 60.1723 82.564C60.4043 82.988 60.5203 83.5 60.5203 84.1V88H59.1643V84.304C59.1643 83.712 59.0163 83.26 58.7203 82.948C58.4243 82.628 58.0203 82.468 57.5083 82.468C56.9963 82.468 56.5883 82.628 56.2843 82.948C55.9883 83.26 55.8403 83.712 55.8403 84.304V88H54.4723V81.388H55.8403V82.144C56.0643 81.872 56.3483 81.66 56.6923 81.508C57.0443 81.356 57.4163 81.28 57.8083 81.28ZM65.6012 81.28C66.1212 81.28 66.5852 81.388 66.9932 81.604C67.4092 81.82 67.7332 82.14 67.9652 82.564C68.1972 82.988 68.3132 83.5 68.3132 84.1V88H66.9572V84.304C66.9572 83.712 66.8092 83.26 66.5132 82.948C66.2172 82.628 65.8132 82.468 65.3012 82.468C64.7892 82.468 64.3812 82.628 64.0772 82.948C63.7812 83.26 63.6332 83.712 63.6332 84.304V88H62.2652V81.388H63.6332V82.144C63.8572 81.872 64.1412 81.66 64.4852 81.508C64.8372 81.356 65.2092 81.28 65.6012 81.28ZM76.0462 81.388V88H74.6782V87.22C74.4622 87.492 74.1782 87.708 73.8262 87.868C73.4822 88.02 73.1142 88.096 72.7222 88.096C72.2022 88.096 71.7342 87.988 71.3182 87.772C70.9102 87.556 70.5862 87.236 70.3462 86.812C70.1142 86.388 69.9982 85.876 69.9982 85.276V81.388H71.3542V85.072C71.3542 85.664 71.5022 86.12 71.7982 86.44C72.0942 86.752 72.4982 86.908 73.0102 86.908C73.5222 86.908 73.9262 86.752 74.2222 86.44C74.5262 86.12 74.6782 85.664 74.6782 85.072V81.388H76.0462ZM77.3952 84.664C77.3952 84 77.5312 83.412 77.8032 82.9C78.0832 82.388 78.4592 81.992 78.9312 81.712C79.4112 81.424 79.9392 81.28 80.5152 81.28C81.0352 81.28 81.4872 81.384 81.8712 81.592C82.2632 81.792 82.5752 82.044 82.8072 82.348V81.388H84.1872V88H82.8072V87.016C82.5752 87.328 82.2592 87.588 81.8592 87.796C81.4592 88.004 81.0032 88.108 80.4912 88.108C79.9232 88.108 79.4032 87.964 78.9312 87.676C78.4592 87.38 78.0832 86.972 77.8032 86.452C77.5312 85.924 77.3952 85.328 77.3952 84.664ZM82.8072 84.688C82.8072 84.232 82.7112 83.836 82.5192 83.5C82.3352 83.164 82.0912 82.908 81.7872 82.732C81.4832 82.556 81.1552 82.468 80.8032 82.468C80.4512 82.468 80.1232 82.556 79.8192 82.732C79.5152 82.9 79.2672 83.152 79.0752 83.488C78.8912 83.816 78.7992 84.208 78.7992 84.664C78.7992 85.12 78.8912 85.52 79.0752 85.864C79.2672 86.208 79.5152 86.472 79.8192 86.656C80.1312 86.832 80.4592 86.92 80.8032 86.92C81.1552 86.92 81.4832 86.832 81.7872 86.656C82.0912 86.48 82.3352 86.224 82.5192 85.888C82.7112 85.544 82.8072 85.144 82.8072 84.688ZM87.352 79.12V88H85.984V79.12H87.352ZM93.6332 79.66V88H92.2652V79.66H93.6332ZM98.7653 81.28C99.2853 81.28 99.7493 81.388 100.157 81.604C100.573 81.82 100.897 82.14 101.129 82.564C101.361 82.988 101.477 83.5 101.477 84.1V88H100.121V84.304C100.121 83.712 99.9733 83.26 99.6773 82.948C99.3813 82.628 98.9773 82.468 98.4653 82.468C97.9533 82.468 97.5453 82.628 97.2413 82.948C96.9453 83.26 96.7973 83.712 96.7973 84.304V88H95.4293V81.388H96.7973V82.144C97.0213 81.872 97.3053 81.66 97.6493 81.508C98.0013 81.356 98.3733 81.28 98.7653 81.28ZM102.766 84.688C102.766 84.008 102.902 83.412 103.174 82.9C103.454 82.38 103.838 81.98 104.326 81.7C104.814 81.42 105.374 81.28 106.006 81.28C106.806 81.28 107.466 81.472 107.986 81.856C108.514 82.232 108.87 82.772 109.054 83.476H107.578C107.458 83.148 107.266 82.892 107.002 82.708C106.738 82.524 106.406 82.432 106.006 82.432C105.446 82.432 104.998 82.632 104.662 83.032C104.334 83.424 104.17 83.976 104.17 84.688C104.17 85.4 104.334 85.956 104.662 86.356C104.998 86.756 105.446 86.956 106.006 86.956C106.798 86.956 107.322 86.608 107.578 85.912H109.054C108.862 86.584 108.502 87.12 107.974 87.52C107.446 87.912 106.79 88.108 106.006 88.108C105.374 88.108 104.814 87.968 104.326 87.688C103.838 87.4 103.454 87 103.174 86.488C102.902 85.968 102.766 85.368 102.766 84.688ZM113.286 88.108C112.662 88.108 112.098 87.968 111.594 87.688C111.09 87.4 110.694 87 110.406 86.488C110.118 85.968 109.974 85.368 109.974 84.688C109.974 84.016 110.122 83.42 110.418 82.9C110.714 82.38 111.118 81.98 111.63 81.7C112.142 81.42 112.714 81.28 113.346 81.28C113.978 81.28 114.55 81.42 115.062 81.7C115.574 81.98 115.978 82.38 116.274 82.9C116.57 83.42 116.718 84.016 116.718 84.688C116.718 85.36 116.566 85.956 116.262 86.476C115.958 86.996 115.542 87.4 115.014 87.688C114.494 87.968 113.918 88.108 113.286 88.108ZM113.286 86.92C113.638 86.92 113.966 86.836 114.27 86.668C114.582 86.5 114.834 86.248 115.026 85.912C115.218 85.576 115.314 85.168 115.314 84.688C115.314 84.208 115.222 83.804 115.038 83.476C114.854 83.14 114.61 82.888 114.306 82.72C114.002 82.552 113.674 82.468 113.322 82.468C112.97 82.468 112.642 82.552 112.338 82.72C112.042 82.888 111.806 83.14 111.63 83.476C111.454 83.804 111.366 84.208 111.366 84.688C111.366 85.4 111.546 85.952 111.906 86.344C112.274 86.728 112.734 86.92 113.286 86.92ZM126.074 81.28C126.594 81.28 127.058 81.388 127.466 81.604C127.882 81.82 128.206 82.14 128.438 82.564C128.678 82.988 128.798 83.5 128.798 84.1V88H127.442V84.304C127.442 83.712 127.294 83.26 126.998 82.948C126.702 82.628 126.298 82.468 125.786 82.468C125.274 82.468 124.866 82.628 124.562 82.948C124.266 83.26 124.118 83.712 124.118 84.304V88H122.762V84.304C122.762 83.712 122.614 83.26 122.318 82.948C122.022 82.628 121.618 82.468 121.106 82.468C120.594 82.468 120.186 82.628 119.882 82.948C119.586 83.26 119.438 83.712 119.438 84.304V88H118.07V81.388H119.438V82.144C119.662 81.872 119.946 81.66 120.29 81.508C120.634 81.356 121.002 81.28 121.394 81.28C121.922 81.28 122.394 81.392 122.81 81.616C123.226 81.84 123.546 82.164 123.77 82.588C123.97 82.188 124.282 81.872 124.706 81.64C125.13 81.4 125.586 81.28 126.074 81.28ZM136.599 84.532C136.599 84.78 136.583 85.004 136.551 85.204H131.499C131.539 85.732 131.735 86.156 132.087 86.476C132.439 86.796 132.871 86.956 133.383 86.956C134.119 86.956 134.639 86.648 134.943 86.032H136.419C136.219 86.64 135.855 87.14 135.327 87.532C134.807 87.916 134.159 88.108 133.383 88.108C132.751 88.108 132.183 87.968 131.679 87.688C131.183 87.4 130.791 87 130.503 86.488C130.223 85.968 130.083 85.368 130.083 84.688C130.083 84.008 130.219 83.412 130.491 82.9C130.771 82.38 131.159 81.98 131.655 81.7C132.159 81.42 132.735 81.28 133.383 81.28C134.007 81.28 134.563 81.416 135.051 81.688C135.539 81.96 135.919 82.344 136.191 82.84C136.463 83.328 136.599 83.892 136.599 84.532ZM135.171 84.1C135.163 83.596 134.983 83.192 134.631 82.888C134.279 82.584 133.843 82.432 133.323 82.432C132.851 82.432 132.447 82.584 132.111 82.888C131.775 83.184 131.575 83.588 131.511 84.1H135.171Z" fill="#7C7C7C"/>
<path d="M81.305 106.38H75.065V109.14C75.3317 108.847 75.705 108.607 76.185 108.42C76.665 108.233 77.185 108.14 77.745 108.14C78.745 108.14 79.5717 108.367 80.225 108.82C80.8917 109.273 81.3783 109.86 81.685 110.58C81.9917 111.3 82.145 112.08 82.145 112.92C82.145 114.48 81.705 115.72 80.825 116.64C79.945 117.547 78.705 118 77.105 118C76.0383 118 75.1117 117.82 74.325 117.46C73.5383 117.087 72.9317 116.573 72.505 115.92C72.0783 115.267 71.845 114.513 71.805 113.66H75.145C75.225 114.073 75.4183 114.42 75.725 114.7C76.0317 114.967 76.4517 115.1 76.985 115.1C77.6117 115.1 78.0783 114.9 78.385 114.5C78.6917 114.1 78.845 113.567 78.845 112.9C78.845 112.247 78.685 111.747 78.365 111.4C78.045 111.053 77.5783 110.88 76.965 110.88C76.5117 110.88 76.1383 110.993 75.845 111.22C75.5517 111.433 75.3583 111.72 75.265 112.08H71.965V103.38H81.305V106.38ZM85.0328 110.5C85.0328 108.207 85.4728 106.4 86.3528 105.08C87.2461 103.76 88.6795 103.1 90.6528 103.1C92.6261 103.1 94.0528 103.76 94.9328 105.08C95.8261 106.4 96.2728 108.207 96.2728 110.5C96.2728 112.82 95.8261 114.64 94.9328 115.96C94.0528 117.28 92.6261 117.94 90.6528 117.94C88.6795 117.94 87.2461 117.28 86.3528 115.96C85.4728 114.64 85.0328 112.82 85.0328 110.5ZM92.9128 110.5C92.9128 109.153 92.7661 108.12 92.4728 107.4C92.1795 106.667 91.5728 106.3 90.6528 106.3C89.7328 106.3 89.1261 106.667 88.8328 107.4C88.5395 108.12 88.3928 109.153 88.3928 110.5C88.3928 111.407 88.4461 112.16 88.5528 112.76C88.6595 113.347 88.8728 113.827 89.1928 114.2C89.5261 114.56 90.0128 114.74 90.6528 114.74C91.2928 114.74 91.7728 114.56 92.0928 114.2C92.4261 113.827 92.6461 113.347 92.7528 112.76C92.8595 112.16 92.9128 111.407 92.9128 110.5ZM107.56 118L102.84 111.8V118H99.4197V103.96H102.84V110.12L107.52 103.96H111.54L106.1 110.84L111.74 118H107.56Z" fill="#1B1D3D"/>
</svg>
